14 SDM algorithms | SCAR-EGABI Tools for Southern Ocean Spatial Analysis and Modelling
…
Not much has really changed, as we have not removed too many rows, which is good thing because it means that those data we removed won’t impact the final conclusions in any major way. This just simplifies our data cleaning for this particular exercise. However, we still have lots of ‘Race’ categories.

FilteredSupes %>% count(Race)

## # A tibble: 53 x 2
##    Race                    n
##    <chr>               <int>
##  1 Alien                   8
##  2 Amazon                  2
##  3 Android                 8
##  4 Animal                  2
##  5 Asgardian               5
##  6 Atlantean               5
##  7 Bizarro                 1
##  8 Bolovaxian              1
##  9 Clone                   1
## 10 Cosmic Entity           4
## 11 Cyborg                  9
## 12 Czarnian                1
## 13 DemiHumanGod            2
## 14 Demon                   6
## 15 Eternal                 3
## 16 Flora Colossus          1
## 17 Frost Giant             2
## 18 God / Eternal          16
## 19 Gorilla                 1
## 20 Human                 384
## 21 Human / Altered         2
## 22 Human / Cosmic          2
## 23 Human / Radiation      12
## 24 HumanHumanInhuman       1
## 25 HumanHumanKree          2
## 26 HumanHumanSpartoi       1
## 27 HumanHumanVuldarian     1
## 28 Icthyo Sapien           1
## 29 Inhuman                 4
## 30 Kakarantharaian         1
## # ... with 23 more rows
…
